\def\tabiteml{\enspace} \def\tabitemr{\enspace}\ctable{9r}{
{} & \mspan2[c]{zeleň} & \mspan2[c]{voda} & \mspan3[c]{silnice} & {} \cr
ID & podél & skrz & podél & mezi & podél & mezi & skrz & chyba \crl\tskip4pt
\ulink[https://openstreetmap.org/way/550307899]{550307899} & 0,0000 & 0,0000 & 0,0000 & 0,0000 & 0,0000 & 0,0000 & 0,0000 & 0,0000 \cr
\ulink[https://openstreetmap.org/way/44288821]{44288821} & 0,0000 & 0,0000 & 0,0000 & 0,0000 & 0,0000 & 0,0000 & 0,0000 & 0,0000 \cr
\ulink[https://openstreetmap.org/way/25400106]{25400106} & 0,0000 & 0,0000 & 0,0000 & 0,0000 & 0,0000 & 0,0000 & 0,0000 & 0,0000 \cr
\ulink[https://openstreetmap.org/way/182100634]{182100634} & 0,0000 & 0,0000 & 0,0000 & 0,0000 & 0,0000 & 0,0000 & 0,0000 & 0,0000 \cr
\ulink[https://openstreetmap.org/way/8588962]{8588962} & 0,0000 & 0,0000 & 0,0000 & 0,0000 & 0,0000 & 0,0000 & 0,0000 & 0,0000 \cr
\ulink[https://openstreetmap.org/way/34637560]{34637560} & 0,0000 & 0,0000 & 0,0000 & 0,0000 & 0,0000 & 0,0000 & 0,0000 & 0,0000 \cr
\ulink[https://openstreetmap.org/way/23315134]{23315134} & 0,0000 & 0,0000 & 0,0000 & 0,0000 & 0,0000 & 0,0000 & 0,0000 & 0,0000 \cr
\ulink[https://openstreetmap.org/way/482520327]{482520327} & 0,0000 & 0,0000 & 0,0000 & 0,0000 & 0,0000 & 0,0000 & 0,0000 & 0,0000 \cr
\ulink[https://openstreetmap.org/way/738125138]{738125138} & -0,0023 & 0,0003 & 0,0000 & 0,0000 & 0,0000 & 0,0000 & 0,0000 & 0,0000 \cr
\ulink[https://openstreetmap.org/way/4709428]{4709428} & -0,0029 & 0,0000 & 0,0000 & 0,0000 & 0,0000 & 0,0000 & 0,0000 & 0,0000 \cr
\ulink[https://openstreetmap.org/way/25400117]{25400117} & 0,0000 & 0,0000 & -0,0100 & 0,0000 & 0,0000 & 0,0000 & 0,0000 & 0,0001 \cr
\ulink[https://openstreetmap.org/way/132921507]{132921507} & 0,0072 & -0,0072 & 0,0000 & 0,0000 & 0,0000 & 0,0000 & 0,0000 & 0,0001 \cr
\ulink[https://openstreetmap.org/way/109076010]{109076010} & 0,0100 & -0,0100 & 0,0000 & 0,0000 & 0,0000 & 0,0000 & 0,0000 & 0,0002 \cr
\ulink[https://openstreetmap.org/way/25400107]{25400107} & 0,0000 & 0,0000 & -0,0222 & 0,0000 & 0,0000 & 0,0000 & 0,0000 & 0,0005 \cr
\ulink[https://openstreetmap.org/way/684198969]{684198969} & 0,0086 & -0,0030 & 0,0000 & 0,0000 & 0,0286 & 0,0000 & 0,0000 & 0,0009 \cr
\ulink[https://openstreetmap.org/way/544563898]{544563898} & 0,0327 & 0,0000 & 0,0000 & 0,0000 & 0,0000 & 0,0000 & 0,0000 & 0,0011 \cr
\ulink[https://openstreetmap.org/way/360330376]{360330376} & 0,0095 & 0,0073 & 0,0000 & 0,0000 & -0,0311 & 0,0000 & 0,0000 & 0,0011 \cr
\ulink[https://openstreetmap.org/way/26378080]{26378080} & 0,0000 & 0,0000 & 0,0341 & 0,0000 & 0,0000 & 0,0000 & 0,0000 & 0,0012 \cr
\ulink[https://openstreetmap.org/way/32398652]{32398652} & 0,0000 & 0,0000 & 0,0000 & 0,0000 & -0,0163 & 0,0000 & 0,0535 & 0,0031 \cr
\ulink[https://openstreetmap.org/way/8100529]{8100529} & -0,0393 & -0,0405 & 0,0000 & 0,0000 & 0,0003 & 0,0010 & 0,0000 & 0,0032 \cr
\ulink[https://openstreetmap.org/way/546733870]{546733870} & -0,0587 & 0,0000 & 0,0000 & 0,0000 & 0,0000 & 0,0000 & 0,0000 & 0,0034 \cr
\ulink[https://openstreetmap.org/way/26427953]{26427953} & 0,0000 & 0,0000 & 0,0000 & 0,0000 & 0,0000 & -0,0714 & 0,0000 & 0,0051 \cr
\ulink[https://openstreetmap.org/way/8660178]{8660178} & -0,0732 & -0,0006 & 0,0000 & 0,0000 & 0,0181 & 0,0000 & 0,0000 & 0,0057 \cr
\ulink[https://openstreetmap.org/way/4709416]{4709416} & -0,0766 & 0,0100 & 0,0000 & 0,0000 & 0,0000 & 0,0000 & 0,0000 & 0,0060 \cr
\ulink[https://openstreetmap.org/way/286839321]{286839321} & -0,0649 & -0,0285 & 0,0000 & 0,0000 & 0,0230 & 0,0230 & 0,0000 & 0,0061 \cr
\ulink[https://openstreetmap.org/way/42944842]{42944842} & -0,0364 & 0,0364 & -0,0727 & 0,0000 & 0,0000 & 0,0000 & 0,0000 & 0,0079 \cr
\ulink[https://openstreetmap.org/way/95350183]{95350183} & -0,0702 & 0,1273 & 0,0409 & 0,0000 & 0,0000 & 0,0000 & 0,0000 & 0,0228 \cr
\ulink[https://openstreetmap.org/way/4709319]{4709319} & -0,0973 & -0,1171 & 0,0000 & 0,0000 & 0,0000 & 0,0000 & 0,0000 & 0,0232 \cr
\ulink[https://openstreetmap.org/way/360690674]{360690674} & 0,1556 & 0,0043 & 0,0000 & 0,0000 & -0,0093 & 0,0000 & -0,0007 & 0,0243 \cr
\ulink[https://openstreetmap.org/way/562284025]{562284025} & 0,1000 & 0,0000 & 0,0000 & 0,0000 & 0,1302 & 0,0000 & 0,0000 & 0,0270 \cr
\ulink[https://openstreetmap.org/way/260181683]{260181683} & 0,0078 & -0,0067 & 0,0000 & 0,0000 & 0,1667 & 0,0000 & 0,0000 & 0,0279 \cr
\ulink[https://openstreetmap.org/way/8588965]{8588965} & -0,1880 & 0,0020 & 0,0000 & 0,0000 & 0,0000 & 0,0000 & 0,0000 & 0,0353 \cr
\ulink[https://openstreetmap.org/way/26378083]{26378083} & 0,0485 & -0,1341 & -0,1273 & 0,0273 & 0,0000 & 0,0000 & 0,0000 & 0,0373 \cr
\ulink[https://openstreetmap.org/way/147231964]{147231964} & 0,1968 & 0,0000 & 0,0000 & 0,0000 & 0,0000 & 0,0000 & 0,0000 & 0,0387 \cr
\ulink[https://openstreetmap.org/way/25400091]{25400091} & -0,1985 & 0,0000 & 0,0000 & 0,0000 & 0,0000 & 0,0000 & 0,0000 & 0,0394 \cr
\ulink[https://openstreetmap.org/way/482706951]{482706951} & 0,1988 & 0,0000 & 0,0000 & 0,0000 & 0,0000 & 0,0000 & 0,0000 & 0,0395 \cr
}
\maybebreak 10cm
\ctable{9r}{
{} & \mspan2[c]{zeleň} & \mspan2[c]{voda} & \mspan3[c]{silnice} & {} \cr
ID & podél & skrz & podél & mezi & podél & mezi & skrz & chyba \crl\tskip4pt
\ulink[https://openstreetmap.org/way/26427962]{26427962} & 0,0000 & 0,0000 & -0,2000 & 0,0000 & 0,0000 & 0,0000 & 0,0000 & 0,0400 \cr
\ulink[https://openstreetmap.org/way/34260112]{34260112} & 0,1202 & -0,1350 & 0,1000 & 0,0000 & 0,0000 & 0,0100 & -0,0100 & 0,0429 \cr
\ulink[https://openstreetmap.org/way/31957682]{31957682} & 0,0658 & -0,0526 & 0,0000 & 0,0000 & 0,2000 & 0,0000 & 0,0000 & 0,0471 \cr
\ulink[https://openstreetmap.org/way/25397203]{25397203} & -0,0821 & 0,1103 & -0,1777 & 0,0000 & -0,0018 & 0,0000 & 0,0000 & 0,0505 \cr
\ulink[https://openstreetmap.org/way/180965351]{180965351} & 0,1116 & 0,1984 & 0,0000 & 0,0000 & -0,0136 & 0,0000 & 0,0000 & 0,0520 \cr
\ulink[https://openstreetmap.org/way/132401546]{132401546} & 0,0954 & 0,1952 & 0,0000 & 0,0000 & 0,0398 & 0,0800 & 0,0000 & 0,0552 \cr
\ulink[https://openstreetmap.org/way/259219167]{259219167} & 0,2460 & -0,0014 & 0,0000 & 0,0000 & -0,0067 & 0,0000 & -0,0009 & 0,0606 \cr
\ulink[https://openstreetmap.org/way/485938113]{485938113} & -0,2458 & 0,0010 & 0,0000 & 0,0000 & 0,0000 & 0,0100 & -0,0100 & 0,0606 \cr
\ulink[https://openstreetmap.org/way/115744295]{115744295} & -0,0979 & 0,0000 & -0,2170 & 0,0000 & 0,0851 & 0,0000 & 0,0000 & 0,0639 \cr
\ulink[https://openstreetmap.org/way/485938101]{485938101} & 0,1415 & 0,0283 & -0,1868 & 0,0000 & 0,1000 & 0,0000 & -0,0100 & 0,0658 \cr
\ulink[https://openstreetmap.org/way/51277601]{51277601} & -0,0770 & -0,0010 & -0,2723 & 0,0000 & -0,0750 & 0,0000 & 0,0000 & 0,0857 \cr
\ulink[https://openstreetmap.org/way/27126958]{27126958} & 0,0757 & 0,0010 & 0,3000 & 0,0000 & 0,0000 & 0,0000 & 0,0000 & 0,0957 \cr
\ulink[https://openstreetmap.org/way/261944484]{261944484} & -0,3125 & -0,0250 & 0,0719 & -0,0619 & 0,0000 & 0,0000 & 0,0000 & 0,1073 \cr
\ulink[https://openstreetmap.org/way/4818889]{4818889} & -0,2302 & 0,2402 & 0,1000 & 0,0000 & 0,0000 & 0,0000 & 0,0000 & 0,1207 \cr
\ulink[https://openstreetmap.org/way/141493852]{141493852} & 0,3125 & 0,0000 & 0,0000 & 0,0000 & 0,0208 & 0,1792 & 0,0000 & 0,1302 \cr
\ulink[https://openstreetmap.org/way/677306325]{677306325} & 0,0000 & 0,0000 & 0,2667 & -0,2667 & 0,0000 & 0,0000 & 0,0000 & 0,1422 \cr
\ulink[https://openstreetmap.org/way/165956907]{165956907} & -0,3900 & -0,0060 & 0,1000 & 0,0000 & -0,0100 & 0,0000 & 0,0000 & 0,1622 \cr
\ulink[https://openstreetmap.org/way/548739733]{548739733} & 0,0000 & 0,0000 & -0,3000 & 0,3000 & 0,0000 & 0,0000 & 0,0000 & 0,1800 \cr
\ulink[https://openstreetmap.org/way/561617083]{561617083} & 0,0000 & 0,0000 & 0,0000 & 0,0000 & 0,4500 & 0,0000 & 0,0000 & 0,2025 \cr
\ulink[https://openstreetmap.org/way/677306334]{677306334} & 0,0000 & 0,0000 & -0,5000 & 0,0000 & 0,0000 & 0,0000 & 0,0000 & 0,2500 \cr
\ulink[https://openstreetmap.org/way/26392190]{26392190} & -0,3043 & 0,4765 & 0,0000 & 0,0000 & 0,0000 & 0,0000 & 0,0000 & 0,3197 \cr
\ulink[https://openstreetmap.org/way/25401468]{25401468} & 0,0000 & 0,0000 & 0,5333 & 0,0000 & -0,8000 & 0,0000 & 0,0000 & 0,9244 \cr
\ulink[https://openstreetmap.org/way/27123916]{27123916} & 0,0000 & 1,0000 & 0,0000 & 0,0000 & 0,0000 & 0,0000 & 0,0000 & 1,0000 \cr
\ulink[https://openstreetmap.org/way/489293163]{489293163} & -0,3000 & 0,0030 & 0,0000 & 0,0000 & -1,0000 & 0,0000 & 0,0000 & 1,0900 \cr
}

